2023-06-30T18:04:37.530359Z 0 [Warning] [MY-010915] [Server] 'NO_ZERO_DATE', 'NO_ZERO_IN_DATE' and 'ERROR_FOR_DIVISION_BY_ZERO' sql modes should be used with strict mode. They will be merged with strict mode in a future release.
2023-06-30T18:04:37.530833Z 0 [Warning] [MY-010918] [Server] 'default_authentication_plugin' is deprecated and will be removed in a future release. Please use authentication_policy instead.
2023-06-30T18:04:37.530893Z 0 [System] [MY-013169] [Server] C:\Server\bin\mysql-8.0\bin\mysqld (mysqld 8.0.33) initializing of server in progress as process 19108
2023-06-30T18:04:37.598754Z 1 [System] [MY-013576] [InnoDB] InnoDB initialization has started.
2023-06-30T18:04:38.956721Z 1 [System] [MY-013577] [InnoDB] InnoDB initialization has ended.
2023-06-30T18:04:41.036668Z 6 [Warning] [MY-010453] [Server] root@localhost is created with an empty password ! Please consider switching off the --initialize-insecure option.
2023-06-30T18:07:38.023775Z 0 [Warning] [MY-010915] [Server] 'NO_ZERO_DATE', 'NO_ZERO_IN_DATE' and 'ERROR_FOR_DIVISION_BY_ZERO' sql modes should be used with strict mode. They will be merged with strict mode in a future release.
2023-06-30T18:07:38.024252Z 0 [Warning] [MY-010918] [Server] 'default_authentication_plugin' is deprecated and will be removed in a future release. Please use authentication_policy instead.
2023-06-30T18:07:38.024300Z 0 [System] [MY-010116] [Server] C:\Server\bin\mysql-8.0\bin\mysqld (mysqld 8.0.33) starting as process 15804
2023-06-30T18:07:38.084975Z 1 [System] [MY-013576] [InnoDB] InnoDB initialization has started.
2023-06-30T18:07:38.823894Z 1 [System] [MY-013577] [InnoDB] InnoDB initialization has ended.
2023-06-30T18:07:39.905876Z 0 [Warning] [MY-010068] [Server] CA certificate ca.pem is self signed.
2023-06-30T18:07:39.906754Z 0 [System] [MY-013602] [Server] Channel mysql_main configured to support TLS. Encrypted connections are now supported for this channel.
2023-06-30T18:07:39.960632Z 0 [System] [MY-011323] [Server] X Plugin ready for connections. Bind-address: '::' port: 33060
2023-06-30T18:07:39.960789Z 0 [System] [MY-010931] [Server] C:\Server\bin\mysql-8.0\bin\mysqld: ready for connections. Version: '8.0.33'  socket: ''  port: 3306  MySQL Community Server - GPL.
2023-07-01T00:17:56.156786Z 0 [System] [MY-013105] [Server] C:\Server\bin\mysql-8.0\bin\mysqld: Normal shutdown.
2023-07-01T00:17:57.140566Z 0 [System] [MY-010910] [Server] C:\Server\bin\mysql-8.0\bin\mysqld: Shutdown complete (mysqld 8.0.33)  MySQL Community Server - GPL.
2023-07-01T08:14:48.340538Z 0 [Warning] [MY-010915] [Server] 'NO_ZERO_DATE', 'NO_ZERO_IN_DATE' and 'ERROR_FOR_DIVISION_BY_ZERO' sql modes should be used with strict mode. They will be merged with strict mode in a future release.
2023-07-01T08:14:48.345033Z 0 [Warning] [MY-010918] [Server] 'default_authentication_plugin' is deprecated and will be removed in a future release. Please use authentication_policy instead.
2023-07-01T08:14:48.345090Z 0 [System] [MY-010116] [Server] C:\Server\bin\mysql-8.0\bin\mysqld (mysqld 8.0.33) starting as process 5104
2023-07-01T08:14:48.898872Z 1 [System] [MY-013576] [InnoDB] InnoDB initialization has started.
2023-07-01T08:14:50.073405Z 1 [System] [MY-013577] [InnoDB] InnoDB initialization has ended.
2023-07-01T08:14:51.195473Z 0 [Warning] [MY-010068] [Server] CA certificate ca.pem is self signed.
2023-07-01T08:14:51.196126Z 0 [System] [MY-013602] [Server] Channel mysql_main configured to support TLS. Encrypted connections are now supported for this channel.
2023-07-01T08:14:51.264899Z 0 [System] [MY-011323] [Server] X Plugin ready for connections. Bind-address: '::' port: 33060
2023-07-01T08:14:51.265011Z 0 [System] [MY-010931] [Server] C:\Server\bin\mysql-8.0\bin\mysqld: ready for connections. Version: '8.0.33'  socket: ''  port: 3306  MySQL Community Server - GPL.
2023-07-01T08:40:00.222041Z 0 [System] [MY-013105] [Server] C:\Server\bin\mysql-8.0\bin\mysqld: Normal shutdown.
2023-07-01T08:40:01.490983Z 0 [System] [MY-010910] [Server] C:\Server\bin\mysql-8.0\bin\mysqld: Shutdown complete (mysqld 8.0.33)  MySQL Community Server - GPL.
2023-07-01T12:33:43.266769Z 0 [Warning] [MY-010915] [Server] 'NO_ZERO_DATE', 'NO_ZERO_IN_DATE' and 'ERROR_FOR_DIVISION_BY_ZERO' sql modes should be used with strict mode. They will be merged with strict mode in a future release.
2023-07-01T12:33:43.304147Z 0 [Warning] [MY-010918] [Server] 'default_authentication_plugin' is deprecated and will be removed in a future release. Please use authentication_policy instead.
2023-07-01T12:33:43.304200Z 0 [System] [MY-010116] [Server] C:\Server\bin\mysql-8.0\bin\mysqld (mysqld 8.0.33) starting as process 4984
2023-07-01T12:33:43.459398Z 1 [System] [MY-013576] [InnoDB] InnoDB initialization has started.
2023-07-01T12:33:45.096291Z 1 [System] [MY-013577] [InnoDB] InnoDB initialization has ended.
2023-07-01T12:33:47.423536Z 0 [Warning] [MY-010068] [Server] CA certificate ca.pem is self signed.
2023-07-01T12:33:47.424137Z 0 [System] [MY-013602] [Server] Channel mysql_main configured to support TLS. Encrypted connections are now supported for this channel.
2023-07-01T12:33:47.481083Z 0 [System] [MY-011323] [Server] X Plugin ready for connections. Bind-address: '::' port: 33060
2023-07-01T12:33:47.481200Z 0 [System] [MY-010931] [Server] C:\Server\bin\mysql-8.0\bin\mysqld: ready for connections. Version: '8.0.33'  socket: ''  port: 3306  MySQL Community Server - GPL.
2023-07-03T23:38:59.408899Z 0 [System] [MY-013105] [Server] C:\Server\bin\mysql-8.0\bin\mysqld: Normal shutdown.
2023-07-03T23:39:00.034204Z 0 [System] [MY-010910] [Server] C:\Server\bin\mysql-8.0\bin\mysqld: Shutdown complete (mysqld 8.0.33)  MySQL Community Server - GPL.
2023-07-03T23:39:37.770882Z 0 [Warning] [MY-010915] [Server] 'NO_ZERO_DATE', 'NO_ZERO_IN_DATE' and 'ERROR_FOR_DIVISION_BY_ZERO' sql modes should be used with strict mode. They will be merged with strict mode in a future release.
2023-07-03T23:39:37.786187Z 0 [Warning] [MY-010918] [Server] 'default_authentication_plugin' is deprecated and will be removed in a future release. Please use authentication_policy instead.
2023-07-03T23:39:37.786255Z 0 [System] [MY-010116] [Server] C:\Server\bin\mysql-8.0\bin\mysqld (mysqld 8.0.33) starting as process 4848
2023-07-03T23:39:37.988387Z 1 [System] [MY-013576] [InnoDB] InnoDB initialization has started.
2023-07-03T23:39:38.963631Z 1 [System] [MY-013577] [InnoDB] InnoDB initialization has ended.
2023-07-03T23:39:40.131464Z 0 [Warning] [MY-010068] [Server] CA certificate ca.pem is self signed.
2023-07-03T23:39:40.132131Z 0 [System] [MY-013602] [Server] Channel mysql_main configured to support TLS. Encrypted connections are now supported for this channel.
2023-07-03T23:39:40.238173Z 0 [System] [MY-011323] [Server] X Plugin ready for connections. Bind-address: '::' port: 33060
2023-07-03T23:39:40.238282Z 0 [System] [MY-010931] [Server] C:\Server\bin\mysql-8.0\bin\mysqld: ready for connections. Version: '8.0.33'  socket: ''  port: 3306  MySQL Community Server - GPL.
2023-07-03T23:39:48.963995Z 0 [System] [MY-013105] [Server] C:\Server\bin\mysql-8.0\bin\mysqld: Normal shutdown.
2023-07-03T23:39:50.060115Z 0 [System] [MY-010910] [Server] C:\Server\bin\mysql-8.0\bin\mysqld: Shutdown complete (mysqld 8.0.33)  MySQL Community Server - GPL.
2023-07-04T11:48:40.886646Z 0 [Warning] [MY-010915] [Server] 'NO_ZERO_DATE', 'NO_ZERO_IN_DATE' and 'ERROR_FOR_DIVISION_BY_ZERO' sql modes should be used with strict mode. They will be merged with strict mode in a future release.
2023-07-04T11:48:40.890027Z 0 [Warning] [MY-010918] [Server] 'default_authentication_plugin' is deprecated and will be removed in a future release. Please use authentication_policy instead.
2023-07-04T11:48:40.890080Z 0 [System] [MY-010116] [Server] C:\Server\bin\mysql-8.0\bin\mysqld (mysqld 8.0.33) starting as process 5288
2023-07-04T11:48:41.181536Z 1 [System] [MY-013576] [InnoDB] InnoDB initialization has started.
2023-07-04T11:48:42.586765Z 1 [System] [MY-013577] [InnoDB] InnoDB initialization has ended.
2023-07-04T11:48:43.569423Z 0 [Warning] [MY-010068] [Server] CA certificate ca.pem is self signed.
2023-07-04T11:48:43.570132Z 0 [System] [MY-013602] [Server] Channel mysql_main configured to support TLS. Encrypted connections are now supported for this channel.
2023-07-04T11:48:43.648836Z 0 [System] [MY-011323] [Server] X Plugin ready for connections. Bind-address: '::' port: 33060
2023-07-04T11:48:43.648961Z 0 [System] [MY-010931] [Server] C:\Server\bin\mysql-8.0\bin\mysqld: ready for connections. Version: '8.0.33'  socket: ''  port: 3306  MySQL Community Server - GPL.
2023-07-07T08:30:13.312853Z 0 [Warning] [MY-010915] [Server] 'NO_ZERO_DATE', 'NO_ZERO_IN_DATE' and 'ERROR_FOR_DIVISION_BY_ZERO' sql modes should be used with strict mode. They will be merged with strict mode in a future release.
2023-07-07T08:30:13.318674Z 0 [Warning] [MY-010918] [Server] 'default_authentication_plugin' is deprecated and will be removed in a future release. Please use authentication_policy instead.
2023-07-07T08:30:13.318726Z 0 [System] [MY-010116] [Server] C:\Server\bin\mysql-8.0\bin\mysqld (mysqld 8.0.33) starting as process 4920
2023-07-07T08:30:13.529202Z 1 [System] [MY-013576] [InnoDB] InnoDB initialization has started.
2023-07-07T08:30:15.895188Z 1 [System] [MY-013577] [InnoDB] InnoDB initialization has ended.
2023-07-07T08:30:17.140810Z 0 [System] [MY-010229] [Server] Starting XA crash recovery...
2023-07-07T08:30:17.147140Z 0 [System] [MY-010232] [Server] XA crash recovery finished.
2023-07-07T08:30:17.310143Z 0 [Warning] [MY-010068] [Server] CA certificate ca.pem is self signed.
2023-07-07T08:30:17.310771Z 0 [System] [MY-013602] [Server] Channel mysql_main configured to support TLS. Encrypted connections are now supported for this channel.
2023-07-07T08:30:17.396679Z 0 [System] [MY-011323] [Server] X Plugin ready for connections. Bind-address: '::' port: 33060
2023-07-07T08:30:17.396861Z 0 [System] [MY-010931] [Server] C:\Server\bin\mysql-8.0\bin\mysqld: ready for connections. Version: '8.0.33'  socket: ''  port: 3306  MySQL Community Server - GPL.
2023-07-07T08:30:34.951012Z 0 [System] [MY-013105] [Server] C:\Server\bin\mysql-8.0\bin\mysqld: Normal shutdown.
2023-07-07T08:30:35.358683Z 0 [System] [MY-010910] [Server] C:\Server\bin\mysql-8.0\bin\mysqld: Shutdown complete (mysqld 8.0.33)  MySQL Community Server - GPL.
2023-07-07T08:31:11.605974Z 0 [Warning] [MY-010915] [Server] 'NO_ZERO_DATE', 'NO_ZERO_IN_DATE' and 'ERROR_FOR_DIVISION_BY_ZERO' sql modes should be used with strict mode. They will be merged with strict mode in a future release.
2023-07-07T08:31:11.619999Z 0 [Warning] [MY-010918] [Server] 'default_authentication_plugin' is deprecated and will be removed in a future release. Please use authentication_policy instead.
2023-07-07T08:31:11.620056Z 0 [System] [MY-010116] [Server] C:\Server\bin\mysql-8.0\bin\mysqld (mysqld 8.0.33) starting as process 5092
2023-07-07T08:31:11.779140Z 1 [System] [MY-013576] [InnoDB] InnoDB initialization has started.
2023-07-07T08:31:12.614963Z 1 [System] [MY-013577] [InnoDB] InnoDB initialization has ended.
2023-07-07T08:31:14.257041Z 0 [Warning] [MY-010068] [Server] CA certificate ca.pem is self signed.
2023-07-07T08:31:14.257793Z 0 [System] [MY-013602] [Server] Channel mysql_main configured to support TLS. Encrypted connections are now supported for this channel.
2023-07-07T08:31:14.369277Z 0 [System] [MY-011323] [Server] X Plugin ready for connections. Bind-address: '::' port: 33060
2023-07-07T08:31:14.369368Z 0 [System] [MY-010931] [Server] C:\Server\bin\mysql-8.0\bin\mysqld: ready for connections. Version: '8.0.33'  socket: ''  port: 3306  MySQL Community Server - GPL.
2023-07-10T01:09:49.619114Z 0 [System] [MY-013105] [Server] C:\Server\bin\mysql-8.0\bin\mysqld: Normal shutdown.
2023-07-10T01:09:50.781129Z 0 [System] [MY-010910] [Server] C:\Server\bin\mysql-8.0\bin\mysqld: Shutdown complete (mysqld 8.0.33)  MySQL Community Server - GPL.
2023-07-10T09:11:32.774771Z 0 [Warning] [MY-010915] [Server] 'NO_ZERO_DATE', 'NO_ZERO_IN_DATE' and 'ERROR_FOR_DIVISION_BY_ZERO' sql modes should be used with strict mode. They will be merged with strict mode in a future release.
2023-07-10T09:11:32.783053Z 0 [Warning] [MY-010918] [Server] 'default_authentication_plugin' is deprecated and will be removed in a future release. Please use authentication_policy instead.
2023-07-10T09:11:32.783135Z 0 [System] [MY-010116] [Server] C:\Server\bin\mysql-8.0\bin\mysqld (mysqld 8.0.33) starting as process 5192
2023-07-10T09:11:33.088350Z 1 [System] [MY-013576] [InnoDB] InnoDB initialization has started.
2023-07-10T09:11:34.594984Z 1 [System] [MY-013577] [InnoDB] InnoDB initialization has ended.
2023-07-10T09:11:35.418520Z 0 [Warning] [MY-010068] [Server] CA certificate ca.pem is self signed.
2023-07-10T09:11:35.419155Z 0 [System] [MY-013602] [Server] Channel mysql_main configured to support TLS. Encrypted connections are now supported for this channel.
2023-07-10T09:11:35.482104Z 0 [System] [MY-011323] [Server] X Plugin ready for connections. Bind-address: '::' port: 33060
2023-07-10T09:11:35.482222Z 0 [System] [MY-010931] [Server] C:\Server\bin\mysql-8.0\bin\mysqld: ready for connections. Version: '8.0.33'  socket: ''  port: 3306  MySQL Community Server - GPL.
2023-07-11T07:23:37.453613Z 0 [System] [MY-013105] [Server] C:\Server\bin\mysql-8.0\bin\mysqld: Normal shutdown.
2023-07-11T07:23:38.766717Z 0 [System] [MY-010910] [Server] C:\Server\bin\mysql-8.0\bin\mysqld: Shutdown complete (mysqld 8.0.33)  MySQL Community Server - GPL.
2023-07-11T07:23:41.835708Z 0 [Warning] [MY-010915] [Server] 'NO_ZERO_DATE', 'NO_ZERO_IN_DATE' and 'ERROR_FOR_DIVISION_BY_ZERO' sql modes should be used with strict mode. They will be merged with strict mode in a future release.
2023-07-11T07:23:41.836170Z 0 [Warning] [MY-010918] [Server] 'default_authentication_plugin' is deprecated and will be removed in a future release. Please use authentication_policy instead.
2023-07-11T07:23:41.836221Z 0 [System] [MY-010116] [Server] C:\Server\bin\mysql-8.0\bin\mysqld (mysqld 8.0.33) starting as process 1436
2023-07-11T07:23:41.901029Z 1 [System] [MY-013576] [InnoDB] InnoDB initialization has started.
2023-07-11T07:23:42.691345Z 1 [System] [MY-013577] [InnoDB] InnoDB initialization has ended.
2023-07-11T07:23:43.278107Z 0 [Warning] [MY-010068] [Server] CA certificate ca.pem is self signed.
2023-07-11T07:23:43.278993Z 0 [System] [MY-013602] [Server] Channel mysql_main configured to support TLS. Encrypted connections are now supported for this channel.
2023-07-11T07:23:43.353891Z 0 [System] [MY-011323] [Server] X Plugin ready for connections. Bind-address: '::' port: 33060
2023-07-11T07:23:43.354042Z 0 [System] [MY-010931] [Server] C:\Server\bin\mysql-8.0\bin\mysqld: ready for connections. Version: '8.0.33'  socket: ''  port: 3306  MySQL Community Server - GPL.
2023-07-11T15:25:00.278562Z 0 [System] [MY-013105] [Server] C:\Server\bin\mysql-8.0\bin\mysqld: Normal shutdown.
2023-07-11T15:25:01.036064Z 0 [System] [MY-010910] [Server] C:\Server\bin\mysql-8.0\bin\mysqld: Shutdown complete (mysqld 8.0.33)  MySQL Community Server - GPL.
2023-07-11T21:22:14.936095Z 0 [Warning] [MY-010915] [Server] 'NO_ZERO_DATE', 'NO_ZERO_IN_DATE' and 'ERROR_FOR_DIVISION_BY_ZERO' sql modes should be used with strict mode. They will be merged with strict mode in a future release.
2023-07-11T21:22:14.940167Z 0 [Warning] [MY-010918] [Server] 'default_authentication_plugin' is deprecated and will be removed in a future release. Please use authentication_policy instead.
2023-07-11T21:22:14.940221Z 0 [System] [MY-010116] [Server] C:\Server\bin\mysql-8.0\bin\mysqld (mysqld 8.0.33) starting as process 5028
2023-07-11T21:22:15.264225Z 1 [System] [MY-013576] [InnoDB] InnoDB initialization has started.
